[
    {"code":"AF", "libelle":"Afghanistan"},
    {"code":"ZA", "libelle":"Afrique du Sud"},
    {"code":"AL", "libelle":"Albanie"},
    {"code":"DZ", "libelle":"Algerie"},
    {"code":"DE", "libelle":"Allemagne"},
    {"code":"AD", "libelle":"Andorre"},
    {"code":"AO", "libelle":"Angola"},
    {"code":"AI", "libelle":"Anguilla"},
    {"code":"AQ", "libelle":"Antarctique"},
    {"code":"AG", "libelle":"Antigua-et-Barbuda"},
    {"code":"AN", "libelle":"Antilles neerlandaises"},
    {"code":"SA", "libelle":"Arabie saoudite"},
    {"code":"AR", "libelle":"Argentine"},
    {"code":"AM", "libelle":"Armenie"},
    {"code":"AW", "libelle":"Aruba"},
    {"code":"AU", "libelle":"Australie"},
    {"code":"AT", "libelle":"Autriche"},
    {"code":"AZ", "libelle":"Azerbaidjan"},
    {"code":"BS", "libelle":"Bahamas"},
    {"code":"BH", "libelle":"Bahrein"},
    {"code":"BD", "libelle":"Bangladesh"},
    {"code":"BB", "libelle":"Barbade"},
    {"code":"BY", "libelle":"Belarus"},
    {"code":"BE", "libelle":"Belgique"},
    {"code":"BZ", "libelle":"Belize"},
    {"code":"BJ", "libelle":"Benin"},
    {"code":"BM", "libelle":"Bermudes"},
    {"code":"BT", "libelle":"Bhoutan"},
    {"code":"BO", "libelle":"Bolivie"},
    {"code":"BA", "libelle":"Bosnie-Herzegovine"},
    {"code":"BW", "libelle":"Botswana"},
    {"code":"BR", "libelle":"Bresil"},
    {"code":"BN", "libelle":"Brunei Darussalam"},
    {"code":"BG", "libelle":"Bulgarie"},
    {"code":"BF", "libelle":"Burkina Faso"},
    {"code":"BI", "libelle":"Burundi"},
    {"code":"KH", "libelle":"Cambodge"},
    {"code":"CM", "libelle":"Cameroun"},
    {"code":"CA", "libelle":"Canada"},
    {"code":"CV", "libelle":"Cap-Vert"},
    {"code":"EA", "libelle":"Ceuta et Melilla"},
    {"code":"CL", "libelle":"Chili"},
    {"code":"CN", "libelle":"Chine"},
    {"code":"CY", "libelle":"Chypre"},
    {"code":"CO", "libelle":"Colombie"},
    {"code":"KM", "libelle":"Comores"},
    {"code":"CG", "libelle":"Congo-Brazzaville"},
    {"code":"KP", "libelle":"Coree du Nord"},
    {"code":"KR", "libelle":"Coree du Sud"},
    {"code":"CR", "libelle":"Costa Rica"},
    {"code":"CI", "libelle":"Cote d Ivoire"},
    {"code":"HR", "libelle":"Croatie"},
    {"code":"CU", "libelle":"Cuba"},
    {"code":"DK", "libelle":"Danemark"},
    {"code":"DG", "libelle":"Diego Garcia"},
    {"code":"DJ", "libelle":"Djibouti"},
    {"code":"DM", "libelle":"Dominique"},
    {"code":"EG", "libelle":"Egypte"},
    {"code":"SV", "libelle":"El Salvador"},
    {"code":"AE", "libelle":"Emirats arabes unis"},
    {"code":"EC", "libelle":"Equateur"},
    {"code":"ER", "libelle":"Erythree"},
    {"code":"ES", "libelle":"Espagne"},
    {"code":"EE", "libelle":"Estonie"},
    {"code":"VA", "libelle":"Etat de la Cite du Vatican"},
    {"code":"FM", "libelle":"Etats federes de Micronesie"},
    {"code":"US", "libelle":"Etats-Unis"},
    {"code":"ET", "libelle":"Ethiopie"},
    {"code":"FJ", "libelle":"Fidji"},
    {"code":"FI", "libelle":"Finlande"},
    {"code":"FR", "libelle":"France"},
    {"code":"GA", "libelle":"Gabon"},
    {"code":"GM", "libelle":"Gambie"},
    {"code":"GE", "libelle":"Georgie"},
    {"code":"GS", "libelle":"Georgie du Sud et les iles Sandwich du Sud"},
    {"code":"GH", "libelle":"Ghana"},
    {"code":"GI", "libelle":"Gibraltar"},
    {"code":"GR", "libelle":"Grece"},
    {"code":"GD", "libelle":"Grenade"},
    {"code":"GL", "libelle":"Groenland"},
    {"code":"GP", "libelle":"Guadeloupe"},
    {"code":"GU", "libelle":"Guam"},
    {"code":"GT", "libelle":"Guatemala"},
    {"code":"GG", "libelle":"Guernesey"},
    {"code":"GN", "libelle":"Guinee"},
    {"code":"GQ", "libelle":"Guinee equatoriale"},
    {"code":"GW", "libelle":"Guinee-Bissau"},
    {"code":"GY", "libelle":"Guyana"},
    {"code":"GF", "libelle":"Guyane francaise"},
    {"code":"HT", "libelle":"Haiti"},
    {"code":"HN", "libelle":"Honduras"},
    {"code":"HU", "libelle":"Hongrie"},
    {"code":"BV", "libelle":"Ile Bouvet"},
    {"code":"CX", "libelle":"Ile Christmas"},
    {"code":"CP", "libelle":"Ile Clipperton"},
    {"code":"AC", "libelle":"Ile de l Ascension"},
    {"code":"IM", "libelle":"Ile de Man"},
    {"code":"NF", "libelle":"Ile Norfolk"},
    {"code":"AX", "libelle":"Iles Åland"},
    {"code":"KY", "libelle":"Iles Caimans"},
    {"code":"IC", "libelle":"Iles Canaries"},
    {"code":"CC", "libelle":"Iles Cocos - Keeling"},
    {"code":"CK", "libelle":"Iles Cook"},
    {"code":"FO", "libelle":"Iles Feroe"},
    {"code":"HM", "libelle":"Iles Heard et MacDonald"},
    {"code":"FK", "libelle":"Iles Malouines"},
    {"code":"MP", "libelle":"Iles Mariannes du Nord"},
    {"code":"MH", "libelle":"Iles Marshall"},
    {"code":"UM", "libelle":"Iles Mineures Eloignees des Etats-Unis"},
    {"code":"SB", "libelle":"Iles Salomon"},
    {"code":"TC", "libelle":"Iles Turks et Caiques"},
    {"code":"VG", "libelle":"Iles Vierges britanniques"},
    {"code":"VI", "libelle":"Iles Vierges des Etats-Unis"},
    {"code":"IN", "libelle":"Inde"},
    {"code":"ID", "libelle":"Indonesie"},
    {"code":"IQ", "libelle":"Irak"},
    {"code":"IR", "libelle":"Iran"},
    {"code":"IE", "libelle":"Irlande"},
    {"code":"IS", "libelle":"Islande"},
    {"code":"IL", "libelle":"Israel"},
    {"code":"IT", "libelle":"Italie"},
    {"code":"JM", "libelle":"Jamaique"},
    {"code":"JP", "libelle":"Japon"},
    {"code":"JE", "libelle":"Jersey"},
    {"code":"JO", "libelle":"Jordanie"},
    {"code":"KZ", "libelle":"Kazakhstan"},
    {"code":"KE", "libelle":"Kenya"},
    {"code":"KG", "libelle":"Kirghizistan"},
    {"code":"KI", "libelle":"Kiribati"},
    {"code":"KW", "libelle":"Koweit"},
    {"code":"LA", "libelle":"Laos"},
    {"code":"LS", "libelle":"Lesotho"},
    {"code":"LV", "libelle":"Lettonie"},
    {"code":"LB", "libelle":"Liban"},
    {"code":"LR", "libelle":"Liberia"},
    {"code":"LY", "libelle":"Libye"},
    {"code":"LI", "libelle":"Liechtenstein"},
    {"code":"LT", "libelle":"Lituanie"},
    {"code":"LU", "libelle":"Luxembourg"},
    {"code":"MK", "libelle":"Macedoine"},
    {"code":"MG", "libelle":"Madagascar"},
    {"code":"MY", "libelle":"Malaisie"},
    {"code":"MW", "libelle":"Malawi"},
    {"code":"MV", "libelle":"Maldives"},
    {"code":"ML", "libelle":"Mali"},
    {"code":"MT", "libelle":"Malte"},
    {"code":"MA", "libelle":"Maroc"},
    {"code":"MQ", "libelle":"Martinique"},
    {"code":"MU", "libelle":"Maurice"},
    {"code":"MR", "libelle":"Mauritanie"},
    {"code":"YT", "libelle":"Mayotte"},
    {"code":"MX", "libelle":"Mexique"},
    {"code":"MD", "libelle":"Moldavie"},
    {"code":"MC", "libelle":"Monaco"},
    {"code":"MN", "libelle":"Mongolie"},
    {"code":"ME", "libelle":"Montenegro"},
    {"code":"MS", "libelle":"Montserrat"},
    {"code":"MZ", "libelle":"Mozambique"},
    {"code":"MM", "libelle":"Myanmar"},
    {"code":"NA", "libelle":"Namibie"},
    {"code":"NR", "libelle":"Nauru"},
    {"code":"NP", "libelle":"Nepal"},
    {"code":"NI", "libelle":"Nicaragua"},
    {"code":"NE", "libelle":"Niger"},
    {"code":"NG", "libelle":"Nigeria"},
    {"code":"NU", "libelle":"Niue"},
    {"code":"NO", "libelle":"Norvege"},
    {"code":"NC", "libelle":"Nouvelle-Caledonie"},
    {"code":"NZ", "libelle":"Nouvelle-Zelande"},
    {"code":"OM", "libelle":"Oman"},
    {"code":"UG", "libelle":"Ouganda"},
    {"code":"UZ", "libelle":"Ouzbekistan"},
    {"code":"PK", "libelle":"Pakistan"},
    {"code":"PW", "libelle":"Palaos"},
    {"code":"PA", "libelle":"Panama"},
    {"code":"PG", "libelle":"Papouasie-Nouvelle-Guinee"},
    {"code":"PY", "libelle":"Paraguay"},
    {"code":"NL", "libelle":"Pays-Bas"},
    {"code":"PE", "libelle":"Perou"},
    {"code":"PH", "libelle":"Philippines"},
    {"code":"PN", "libelle":"Pitcairn"},
    {"code":"PL", "libelle":"Pologne"},
    {"code":"PF", "libelle":"Polynesie francaise"},
    {"code":"PR", "libelle":"Porto Rico"},
    {"code":"PT", "libelle":"Portugal"},
    {"code":"QA", "libelle":"Qatar"},
    {"code":"HK", "libelle":"R.A.S. chinoise de Hong Kong"},
    {"code":"MO", "libelle":"R.A.S. chinoise de Macao"},
    {"code":"QO", "libelle":"regions eloignees de l’Oceanie"},
    {"code":"CF", "libelle":"Republique centrafricaine"},
    {"code":"CD", "libelle":"Republique democratique du Congo"},
    {"code":"DO", "libelle":"Republique dominicaine"},
    {"code":"CZ", "libelle":"Republique tcheque"},
    {"code":"RE", "libelle":"Reunion"},
    {"code":"RO", "libelle":"Roumanie"},
    {"code":"GB", "libelle":"Royaume-Uni"},
    {"code":"RU", "libelle":"Russie"},
    {"code":"RW", "libelle":"Rwanda"},
    {"code":"EH", "libelle":"Sahara occidental"},
    {"code":"BL", "libelle":"Saint-Barthelemy"},
    {"code":"KN", "libelle":"Saint-Kitts-et-Nevis"},
    {"code":"SM", "libelle":"Saint-Marin"},
    {"code":"MF", "libelle":"Saint-Martin"},
    {"code":"PM", "libelle":"Saint-Pierre-et-Miquelon"},
    {"code":"VC", "libelle":"Saint-Vincent-et-les Grenadines"},
    {"code":"SH", "libelle":"Sainte-Helene"},
    {"code":"LC", "libelle":"Sainte-Lucie"},
    {"code":"WS", "libelle":"Samoa"},
    {"code":"AS", "libelle":"Samoa americaines"},
    {"code":"ST", "libelle":"Sao Tome-et-Principe"},
    {"code":"SN", "libelle":"Senegal"},
    {"code":"RS", "libelle":"Serbie"},
    {"code":"CS", "libelle":"Serbie-et-Montenegro"},
    {"code":"SC", "libelle":"Seychelles"},
    {"code":"SL", "libelle":"Sierra Leone"},
    {"code":"SG", "libelle":"Singapour"},
    {"code":"SK", "libelle":"Slovaquie"},
    {"code":"SI", "libelle":"Slovenie"},
    {"code":"SO", "libelle":"Somalie"},
    {"code":"SD", "libelle":"Soudan"},
    {"code":"LK", "libelle":"Sri Lanka"},
    {"code":"SE", "libelle":"Suede"},
    {"code":"CH", "libelle":"Suisse"},
    {"code":"SR", "libelle":"Suriname"},
    {"code":"SJ", "libelle":"Svalbard et Ile Jan Mayen"},
    {"code":"SZ", "libelle":"Swaziland"},
    {"code":"SY", "libelle":"Syrie"},
    {"code":"TJ", "libelle":"Tadjikistan"},
    {"code":"TW", "libelle":"Taiwan"},
    {"code":"TZ", "libelle":"Tanzanie"},
    {"code":"TD", "libelle":"Tchad"},
    {"code":"TF", "libelle":"Terres australes francaises"},
    {"code":"IO", "libelle":"Territoire britannique de l ocean Indien"},
    {"code":"PS", "libelle":"Territoire palestinien"},
    {"code":"TH", "libelle":"Thailande"},
    {"code":"TL", "libelle":"Timor oriental"},
    {"code":"TG", "libelle":"Togo"},
    {"code":"TK", "libelle":"Tokelau"},
    {"code":"TO", "libelle":"Tonga"},
    {"code":"TT", "libelle":"Trinite-et-Tobago"},
    {"code":"TA", "libelle":"Tristan da Cunha"},
    {"code":"TN", "libelle":"Tunisie"},
    {"code":"TM", "libelle":"Turkmenistan"},
    {"code":"TR", "libelle":"Turquie"},
    {"code":"TV", "libelle":"Tuvalu"},
    {"code":"UA", "libelle":"Ukraine"},
    {"code":"EU", "libelle":"Union europeenne"},
    {"code":"UY", "libelle":"Uruguay"},
    {"code":"VU", "libelle":"Vanuatu"},
    {"code":"VE", "libelle":"Venezuela"},
    {"code":"VN", "libelle":"Viet Nam"},
    {"code":"WF", "libelle":"Wallis-et-Futuna"},
    {"code":"YE", "libelle":"Yemen"},
    {"code":"ZM", "libelle":"Zambie"},
    {"code":"ZW", "libelle":"Zimbabwe"}
]